The imposter syndrome is strong with this one
…
## [1] 118

cols_x_filt <- cols_x %>% str_subset('id$', negate = TRUE)

coefs_glm <-
  cols_x_filt %>% map_dfr(f_glm)

coefs_glm %>% 
  filter(term != '(Intercept)') %>% 
  arrange(p.value)

## # A tibble: 1,015 x 6
##    term   estimate std.error statistic   p.value   idx
##    <chr>     <dbl>     <dbl>     <dbl>     <dbl> <int>
##  1 like      0.560    0.0255      22.0 3.13e-107  1102
##  2 like_o    0.560    0.0255      22.0 3.55e-107    54
##  3 fun       0.460    0.0227      20.2 4.79e- 91  1096
##  4 fun_o     0.460    0.0227      20.2 5.27e- 91    48
##  5 attr      0.417    0.0216      19.3 6.21e- 83  1090
##  6 attr_o    0.417    0.0216      19.3 6.43e- 83    42
##  7 shar      0.382    0.0201      19.0 1.22e- 80  1100
##  8 shar_o    0.382    0.0201      19.0 1.25e- 80    52
##  9 prob      0.358    0.0188      19.0 1.31e- 80  1104
## 10 prob_o    0.358    0.0188      19.0 1.58e- 80    56
## # ... with 1,005 more rows
…
# Just checking that it works.
rec %>% 
  prep() %>% 
  juice()

## # A tibble: 1,992 x 23
##      age   amb  attr   fun intel  like   met  prob  race  shar  sinc age_o amb_o
##    <dbl> <dbl> <dbl> <dbl> <dbl> <dbl> <dbl> <dbl> <dbl> <dbl> <dbl> <dbl> <dbl>
##  1    30   5       6     6     5   6     2     4       4   4     6      23    10
##  2    29   5.4     6     3     5   5     2     3       2   5     5.6    28     6
##  3    36   5       7     5     7   5     0     2       2   4.8   7      33     8
##  4    23  10       7     8    10   7     2     5       2   7     8      27     6
##  5    24   6       7     5     5   3     0     2       4   1     8      25     3
##  6    27   8       6     8     8   8     1.2   8       4   8     7      27     6
##  7    23   5       8     9     7   8     2     1       2   4     7      27     7
##  8    23   9       3     5     9   6     2     7       4   2    10      21     7
##  9    26   6       2     6     7   6.4   0     6.4     2   6     8      29    10
## 10    23   6       6     6     6   4     0     6       4   6     6      26     7
## # ... with 1,982 more rows, and 10 more variables: attr_o <dbl>, fun_o <dbl>,
## #   intel_o <dbl>, like_o <dbl>, met_o <dbl>, prob_o <dbl>, race_o <dbl>,
## #   shar_o <dbl>, sinc_o <dbl>, match <fct>
…
mets_rf <-
  res_rf %>% 
  collect_metrics()
mets_rf

## # A tibble: 30 x 8
##     mtry trees .metric     .estimator  mean     n std_err .config              
##    <int> <int> <chr>       <chr>      <dbl> <int>   <dbl> <chr>                
##  1     3   126 accuracy    binary     0.771    10 0.00427 Preprocessor1_Model01
##  2     3   126 mn_log_loss binary     0.486    10 0.00502 Preprocessor1_Model01
##  3     3   126 roc_auc     binary     0.853    10 0.00651 Preprocessor1_Model01
##  4    12  1970 accuracy    binary     0.773    10 0.00319 Preprocessor1_Model02
##  5    12  1970 mn_log_loss binary     0.482    10 0.00539 Preprocessor1_Model02
##  6    12  1970 roc_auc     binary     0.853    10 0.00625 Preprocessor1_Model02
##  7     2  1790 accuracy    binary     0.774    10 0.00524 Preprocessor1_Model03
##  8     2  1790 mn_log_loss binary     0.487    10 0.00410 Preprocessor1_Model03
##  9     2  1790 roc_auc     binary     0.855    10 0.00590 Preprocessor1_Model03
## 10    23  1128 accuracy    binary     0.774    10 0.00323 Preprocessor1_Model04
## # ... with 20 more rows
…
A blend of 6 rf models were chosen by the ensembling

# preds_ens_holdout <-
#   fit_ens %>% 
#   predict(df_holdout_slim, type = 'pred')
df_holdout_slim

## # A tibble: 882 x 22
##      age   amb  attr   fun intel  like   met  prob  race  shar  sinc age_o amb_o
##    <dbl> <dbl> <dbl> <dbl> <dbl> <dbl> <dbl> <dbl> <dbl> <dbl> <dbl> <dbl> <dbl>
##  1    28     5     6     6     7     6     0     8     3     2     6    29     6
##  2    28     6     4     6     6     6     0     8     3     6     5    24     8
##  3    28     9     7     4     9     2     0     4     3     3     6    21     6
##  4    28     5     2     5     5     3     0     3     3     1     4    26     9
##  5    28     9     2     1     1     1     0     2     3     5     1    25    NA
##  6    28     8     1     1     8     2     0     8     3     1     2    32     8
##  7    28     8     4     1     5     6     0     8     3     7     2    25     8
##  8    28     3     1     1     8     2     0     8     3     1     9    25     8
##  9    28     6     4     6     8     4     0     8     3    10     6    27     5
## 10    28     5     1     7     5     1     0     4     3     1     2    23     8
## # ... with 872 more rows, and 9 more variables: attr_o <dbl>, fun_o <dbl>,
## #   intel_o <dbl>, like_o <dbl>, met_o <dbl>, prob_o <dbl>, race_o <dbl>,
## #   shar_o <dbl>, sinc_o <dbl>

preds_holdout <-
  # fit_rf_final %>% 
  fit_knn_best %>% 
  predict(df_holdout_slim, type = 'class')
preds_holdout

## # A tibble: 664 x 1
##    .pred_class
##    <fct>      
##  1 0          
##  2 1          
##  3 0          
##  4 0          
##  5 0          
##  6 0          
##  7 0          
##  8 1          
##  9 0          
## 10 0          
## # ... with 654 more rows

probs_holdout <-
  # fit_rf_final %>% 
  fit_knn_best %>% 
  predict(df_holdout_slim, type = 'prob') %>% 
  rename(prob_0 = .pred_0, prob_1 = .pred_1)
probs_holdout

## # A tibble: 664 x 2
##    prob_0 prob_1
##     <dbl>  <dbl>
##  1  0.933 0.0667
##  2  0.267 0.733 
##  3  0.733 0.267 
##  4  0.933 0.0667
##  5  1     0     
##  6  0.867 0.133 
##  7  0.933 0.0667
##  8  0.4   0.6   
##  9  1     0     
## 10  0.933 0.0667
## # ... with 654 more rows
…
