episode 3
…
df_trn %>% select(gain)

## # A tibble: 82,373 x 1
##       gain
##      <dbl>
##  1 -4727. 
##  2 -2022. 
##  3  -142. 
##  4   -69.6
##  5   -55.9
##  6   -13.8
##  7   -11.9
##  8   -12.2
##  9   124. 
## 10  2392. 
## # ... with 82,363 more rows
…
# 0.830 accuracy cool story bro
preds_trn_nn %>% accuracy(volatile, .pred_class)

## # A tibble: 1 x 3
##   .metric  .estimator .estimate
##   <chr>    <chr>          <dbl>
## 1 accuracy multiclass     0.808

preds_nn <- fit_nn %>% predict(df_tst)
preds_nn

## # A tibble: 103 x 1
##    .pred_class
##    <fct>      
##  1 1          
##  2 -1         
##  3 1          
##  4 1          
##  5 1          
##  6 1          
##  7 1          
##  8 -1         
##  9 -1         
## 10 -1         
## # ... with 93 more rows
…
